{
"artists": {
    "cursors": {
    "after": "4kAzmAcboZ0F6bCCb4jj8I"
    }, 
    "href": "https://api.spotify.com/v1/me/following?type=artist&limit=20", 
    "items": [
    {
        "external_urls": {
        "spotify": "https://open.spotify.com/artist/0LnhY2fzptb0QEs5Q5gM7S"
        }, 
        "followers": {
        "href": null, 
        "total": 181421
        }, 
        "genres": [
        "french hip hop", 
        "pop urbaine", 
        "rap calme", 
        "rap francais"
        ], 
        "href": "https://api.spotify.com/v1/artists/0LnhY2fzptb0QEs5Q5gM7S", 
        "id": "0LnhY2fzptb0QEs5Q5gM7S", 
        "images": [
        {
            "height": 640, 
            "url": "https://i.scdn.co/image/187e254ef768f9c383eadf99f531477315ca1450", 
            "width": 640
        }, 
        {
            "height": 320, 
            "url": "https://i.scdn.co/image/ef3a6ee1792f68ee92a49cc357cff8b589d59da1", 
            "width": 320
        }, 
        {
            "height": 160, 
            "url": "https://i.scdn.co/image/ed4ef0f0226568b714de63b1de6181c9ffcef94a", 
            "width": 160
        }
        ], 
        "name": "Laylow", 
        "popularity": 68, 
        "type": "artist", 
        "uri": "spotify:artist:0LnhY2fzptb0QEs5Q5gM7S"
    }, 
    {
        "external_urls": {
        "spotify": "https://open.spotify.com/artist/0OQMxt6l70FM2YlLwYDiEn"
        }, 
        "followers": {
        "href": null, 
        "total": 80284
        }, 
        "genres": [
        "belgian hip hop", 
        "french hip hop", 
        "rap calme"
        ], 
        "href": "https://api.spotify.com/v1/artists/0OQMxt6l70FM2YlLwYDiEn", 
        "id": "0OQMxt6l70FM2YlLwYDiEn", 
        "images": [
        {
            "height": 640, 
            "url": "https://i.scdn.co/image/aa7c4e26b0ff40fc50cb3d2e720143d960a14d87", 
            "width": 640
        }, 
        {
            "height": 320, 
            "url": "https://i.scdn.co/image/253a8cf0796384e5e85f77ec40bb4eadfd8ab22d", 
            "width": 320
        }, 
        {
            "height": 160, 
            "url": "https://i.scdn.co/image/1c7cbe5b7c16713430c023e3a9d461006dc8fefc", 
            "width": 160
        }
        ], 
        "name": "Swing", 
        "popularity": 54, 
        "type": "artist", 
        "uri": "spotify:artist:0OQMxt6l70FM2YlLwYDiEn"
    }, 
    {
        "external_urls": {
        "spotify": "https://open.spotify.com/artist/0dSh0CIa0HPd9kJmJSmGQo"
        }, 
        "followers": {
        "href": null, 
        "total": 57483
        }, 
        "genres": [
        "belgian hip hop", 
        "french hip hop", 
        "pop urbaine", 
        "rap calme", 
        "rap francais", 
        "rap inde"
        ], 
        "href": "https://api.spotify.com/v1/artists/0dSh0CIa0HPd9kJmJSmGQo", 
        "id": "0dSh0CIa0HPd9kJmJSmGQo", 
        "images": [
        {
            "height": 640, 
            "url": "https://i.scdn.co/image/e2d08f442e981f90bfc0e675b10e7effabc33c53", 
            "width": 640
        }, 
        {
            "height": 320, 
            "url": "https://i.scdn.co/image/6d3ac4d5d32855ca9aaf92a950e461546ff5ec78", 
            "width": 320
        }, 
        {
            "height": 160, 
            "url": "https://i.scdn.co/image/fb3cad9697d1440b8db5525c3594645145eeedfd", 
            "width": 160
        }
        ], 
        "name": "ISHA", 
        "popularity": 53, 
        "type": "artist", 
        "uri": "spotify:artist:0dSh0CIa0HPd9kJmJSmGQo"
    }, 
    {
        "external_urls": {
        "spotify": "https://open.spotify.com/artist/1E8w172gkuT5htpwaIEsEl"
        }, 
        "followers": {
        "href": null, 
        "total": 101823
        }, 
        "genres": [
        "french hip hop", 
        "pop urbaine", 
        "rap calme", 
        "rap francais"
        ], 
        "href": "https://api.spotify.com/v1/artists/1E8w172gkuT5htpwaIEsEl", 
        "id": "1E8w172gkuT5htpwaIEsEl", 
        "images": [
        {
            "height": 640, 
            "url": "https://i.scdn.co/image/86825e92cdfd4910f6cf61f61b7c0ef48a2494b1", 
            "width": 640
        }, 
        {
            "height": 320, 
            "url": "https://i.scdn.co/image/0589d0811ec083c4fa496c0e7eb2c9c0b65f63bc", 
            "width": 320
        }, 
        {
            "height": 160, 
            "url": "https://i.scdn.co/image/8c64941ae074eb3b079b9f6ceada7a116ea9c30b", 
            "width": 160
        }
        ], 
        "name": "N\u00e9pal", 
        "popularity": 66, 
        "type": "artist", 
        "uri": "spotify:artist:1E8w172gkuT5htpwaIEsEl"
    }, 
    {
        "external_urls": {
        "spotify": "https://open.spotify.com/artist/1QPdp5duV6lV4XINCzjwQ2"
        }, 
        "followers": {
        "href": null, 
        "total": 245352
        }, 
        "genres": [
        "french hip hop", 
        "pop urbaine", 
        "rap francais"
        ], 
        "href": "https://api.spotify.com/v1/artists/1QPdp5duV6lV4XINCzjwQ2", 
        "id": "1QPdp5duV6lV4XINCzjwQ2", 
        "images": [
        {
            "height": 640, 
            "url": "https://i.scdn.co/image/1c23d6d8a1748dfc5dffe40cf94a732434dd40d4", 
            "width": 640
        }, 
        {
            "height": 320, 
            "url": "https://i.scdn.co/image/b7a5509f5558bf5590fd3e09f2ba97aff14b33ab", 
            "width": 320
        }, 
        {
            "height": 160, 
            "url": "https://i.scdn.co/image/d3414a88732083ee479fef45d0be64987c061999", 
            "width": 160
        }
        ], 
        "name": "Dinos", 
        "popularity": 70, 
        "type": "artist", 
        "uri": "spotify:artist:1QPdp5duV6lV4XINCzjwQ2"
    }, 
    {
        "external_urls": {
        "spotify": "https://open.spotify.com/artist/1Yfe3ONJlioHys7jwHdfVm"
        }, 
        "followers": {
        "href": null, 
        "total": 1145528
        }, 
        "genres": [
        "french hip hop", 
        "new french touch", 
        "rap calme", 
        "rap conscient"
        ], 
        "href": "https://api.spotify.com/v1/artists/1Yfe3ONJlioHys7jwHdfVm", 
        "id": "1Yfe3ONJlioHys7jwHdfVm", 
        "images": [
        {
            "height": 640, 
            "url": "https://i.scdn.co/image/fdeb02bc5f5badca6d9cf6ec4187fd9322968fd6", 
            "width": 640
        }, 
        {
            "height": 320, 
            "url": "https://i.scdn.co/image/8b1f621286a2153fe5991be53ff6191caa3830b1", 
            "width": 320
        }, 
        {
            "height": 160, 
            "url": "https://i.scdn.co/image/1151ae3f7a1bfa281e9f8b100c2b7584b9203233", 
            "width": 160
        }
        ], 
        "name": "Lomepal", 
        "popularity": 71, 
        "type": "artist", 
        "uri": "spotify:artist:1Yfe3ONJlioHys7jwHdfVm"
    }, 
    {
        "external_urls": {
        "spotify": "https://open.spotify.com/artist/1mMUzAMrNqoTHgtxA0dZi6"
        }, 
        "followers": {
        "href": null, 
        "total": 254525
        }, 
        "genres": [
        "belgian hip hop", 
        "french hip hop", 
        "pop urbaine", 
        "rap calme", 
        "rap francais"
        ], 
        "href": "https://api.spotify.com/v1/artists/1mMUzAMrNqoTHgtxA0dZi6", 
        "id": "1mMUzAMrNqoTHgtxA0dZi6", 
        "images": [
        {
            "height": 640, 
            "url": "https://i.scdn.co/image/bbbc92095196dc7cb856b895555e9de7b4dee61d", 
            "width": 640
        }, 
        {
            "height": 320, 
            "url": "https://i.scdn.co/image/3d3af5b75b46605645e86572e9d36b0bdab6810a", 
            "width": 320
        }, 
        {
            "height": 160, 
            "url": "https://i.scdn.co/image/86b84775643f6dc9c13ffac9edb6e387a1a04bcf", 
            "width": 160
        }
        ], 
        "name": "Caballero & JeanJass", 
        "popularity": 59, 
        "type": "artist", 
        "uri": "spotify:artist:1mMUzAMrNqoTHgtxA0dZi6"
    }, 
    {
        "external_urls": {
        "spotify": "https://open.spotify.com/artist/246dkjvS1zLTtiykXe5h60"
        }, 
        "followers": {
        "href": null, 
        "total": 31592018
        }, 
        "genres": [
        "dfw rap", 
        "melodic rap", 
        "rap"
        ], 
        "href": "https://api.spotify.com/v1/artists/246dkjvS1zLTtiykXe5h60", 
        "id": "246dkjvS1zLTtiykXe5h60", 
        "images": [
        {
            "height": 640, 
            "url": "https://i.scdn.co/image/93fec27f9aac86526b9010e882037afbda4e3d5f", 
            "width": 640
        }, 
        {
            "height": 320, 
            "url": "https://i.scdn.co/image/9040899d5660920fdf7efeb7aa2cc4e6d86f86f6", 
            "width": 320
        }, 
        {
            "height": 160, 
            "url": "https://i.scdn.co/image/d15a5ffb3d22adabd09a749e09e846f527ab5a94", 
            "width": 160
        }
        ], 
        "name": "Post Malone", 
        "popularity": 94, 
        "type": "artist", 
        "uri": "spotify:artist:246dkjvS1zLTtiykXe5h60"
    }, 
    {
        "external_urls": {
        "spotify": "https://open.spotify.com/artist/25yJrwrn5I0EUdQEiTtNSO"
        }, 
        "followers": {
        "href": null, 
        "total": 379689
        }, 
        "genres": [
        "francoton", 
        "french hip hop", 
        "pop urbaine", 
        "rap calme", 
        "rap conscient", 
        "rap francais"
        ], 
        "href": "https://api.spotify.com/v1/artists/25yJrwrn5I0EUdQEiTtNSO", 
        "id": "25yJrwrn5I0EUdQEiTtNSO", 
        "images": [
        {
            "height": 640, 
            "url": "https://i.scdn.co/image/cabb3c7144ede4a2d71fa360bc8b1be97b3415c7", 
            "width": 640
        }, 
        {
            "height": 320, 
            "url": "https://i.scdn.co/image/f4d8f2d61947cb8c67ba783fa35f22caf199a147", 
            "width": 320
        }, 
        {
            "height": 160, 
            "url": "https://i.scdn.co/image/211fb4448cdc5101f7637e97add1a7d6d738183a", 
            "width": 160
        }
        ], 
        "name": "Lefa", 
        "popularity": 66, 
        "type": "artist", 
        "uri": "spotify:artist:25yJrwrn5I0EUdQEiTtNSO"
    }, 
    {
        "external_urls": {
        "spotify": "https://open.spotify.com/artist/2UwqpfQtNuhBwviIC0f2ie"
        }, 
        "followers": {
        "href": null, 
        "total": 2782583
        }, 
        "genres": [
        "belgian hip hop", 
        "french hip hop", 
        "pop urbaine", 
        "rap conscient"
        ], 
        "href": "https://api.spotify.com/v1/artists/2UwqpfQtNuhBwviIC0f2ie", 
        "id": "2UwqpfQtNuhBwviIC0f2ie", 
        "images": [
        {
            "height": 640, 
            "url": "https://i.scdn.co/image/f5bdd6f2a2f70b8b10473adb9d587c743fde1565", 
            "width": 640
        }, 
        {
            "height": 320, 
            "url": "https://i.scdn.co/image/58be633310aab51a3bf8a8eef6ae644577589ddc", 
            "width": 320
        }, 
        {
            "height": 160, 
            "url": "https://i.scdn.co/image/a81124e13d99f19881c71d9a3b63ef52a771678a", 
            "width": 160
        }
        ], 
        "name": "Damso", 
        "popularity": 78, 
        "type": "artist", 
        "uri": "spotify:artist:2UwqpfQtNuhBwviIC0f2ie"
    }, 
    {
        "external_urls": {
        "spotify": "https://open.spotify.com/artist/2kIs76sEGiulKeqetZq6ua"
        }, 
        "followers": {
        "href": null, 
        "total": 563823
        }, 
        "genres": [
        "francoton", 
        "french hip hop", 
        "pop urbaine", 
        "rap calme", 
        "rap francais"
        ], 
        "href": "https://api.spotify.com/v1/artists/2kIs76sEGiulKeqetZq6ua", 
        "id": "2kIs76sEGiulKeqetZq6ua", 
        "images": [
        {
            "height": 640, 
            "url": "https://i.scdn.co/image/3647da252001ddc893beecb14f004517aafd9aba", 
            "width": 640
        }, 
        {
            "height": 320, 
            "url": "https://i.scdn.co/image/df0b06e91564802aefa3771737687852d74c0094", 
            "width": 320
        }, 
        {
            "height": 160, 
            "url": "https://i.scdn.co/image/728d3192bb69248c3cb3f7f93c5fb968a92c6245", 
            "width": 160
        }
        ], 
        "name": "Jok'air", 
        "popularity": 71, 
        "type": "artist", 
        "uri": "spotify:artist:2kIs76sEGiulKeqetZq6ua"
    }, 
    {
        "external_urls": {
        "spotify": "https://open.spotify.com/artist/2lPL3aVXBS4gVGymFOAYxF"
        }, 
        "followers": {
        "href": null, 
        "total": 102567
        }, 
        "genres": [
        "belgian hip hop", 
        "french hip hop", 
        "rap calme", 
        "rap conscient"
        ], 
        "href": "https://api.spotify.com/v1/artists/2lPL3aVXBS4gVGymFOAYxF", 
        "id": "2lPL3aVXBS4gVGymFOAYxF", 
        "images": [
        {
            "height": 640, 
            "url": "https://i.scdn.co/image/acd1d46b753a2bb3978c109c7c319bd1d6303e41", 
            "width": 640
        }, 
        {
            "height": 320, 
            "url": "https://i.scdn.co/image/9e77f3b711ffdd48ce288f8c77f580bf8daad401", 
            "width": 320
        }, 
        {
            "height": 160, 
            "url": "https://i.scdn.co/image/fceca4d8a00a723dff8e3f7d570f506aaa2f4e74", 
            "width": 160
        }
        ], 
        "name": "L'Or du Commun", 
        "popularity": 45, 
        "type": "artist", 
        "uri": "spotify:artist:2lPL3aVXBS4gVGymFOAYxF"
    }, 
    {
        "external_urls": {
        "spotify": "https://open.spotify.com/artist/2pHk4wAmL7ofTAuvCIUWtv"
        }, 
        "followers": {
        "href": null, 
        "total": 703278
        }, 
        "genres": [
        "belgian hip hop", 
        "french hip hop", 
        "new french touch", 
        "rap calme"
        ], 
        "href": "https://api.spotify.com/v1/artists/2pHk4wAmL7ofTAuvCIUWtv", 
        "id": "2pHk4wAmL7ofTAuvCIUWtv", 
        "images": [
        {
            "height": 640, 
            "url": "https://i.scdn.co/image/d1fed033292d38c12f4876b21546d84c7b9c3f76", 
            "width": 640
        }, 
        {
            "height": 320, 
            "url": "https://i.scdn.co/image/0f79ee22e9e521f71a6ec5bce751b39d43ae7466", 
            "width": 320
        }, 
        {
            "height": 160, 
            "url": "https://i.scdn.co/image/c6d62607b11d792b0ecc5a7e3eb7c5980993fc51", 
            "width": 160
        }
        ], 
        "name": "Rom\u00e9o Elvis", 
        "popularity": 67, 
        "type": "artist", 
        "uri": "spotify:artist:2pHk4wAmL7ofTAuvCIUWtv"
    }, 
    {
        "external_urls": {
        "spotify": "https://open.spotify.com/artist/3DCWeG2J1fZeu0Oe6i5Q6m"
        }, 
        "followers": {
        "href": null, 
        "total": 728595
        }, 
        "genres": [
        "french hip hop", 
        "pop urbaine", 
        "rap conscient", 
        "rap francais"
        ], 
        "href": "https://api.spotify.com/v1/artists/3DCWeG2J1fZeu0Oe6i5Q6m", 
        "id": "3DCWeG2J1fZeu0Oe6i5Q6m", 
        "images": [
        {
            "height": 640, 
            "url": "https://i.scdn.co/image/877867ee3e004a61f5fdbb40cf467505fca0c7ce", 
            "width": 640
        }, 
        {
            "height": 320, 
            "url": "https://i.scdn.co/image/3468d30d12a73a0c81e1114949b0d6c2acf98d08", 
            "width": 320
        }, 
        {
            "height": 160, 
            "url": "https://i.scdn.co/image/bf9501a8684be4340e9ce01e33acf1929e8c8c45", 
            "width": 160
        }
        ], 
        "name": "PLK", 
        "popularity": 77, 
        "type": "artist", 
        "uri": "spotify:artist:3DCWeG2J1fZeu0Oe6i5Q6m"
    }, 
    {
        "external_urls": {
        "spotify": "https://open.spotify.com/artist/3TVXtAsR1Inumwj472S9r4"
        }, 
        "followers": {
        "href": null, 
        "total": 53628235
        }, 
        "genres": [
        "canadian hip hop", 
        "canadian pop", 
        "hip hop", 
        "pop rap", 
        "rap", 
        "toronto rap"
        ], 
        "href": "https://api.spotify.com/v1/artists/3TVXtAsR1Inumwj472S9r4", 
        "id": "3TVXtAsR1Inumwj472S9r4", 
        "images": [
        {
            "height": 640, 
            "url": "https://i.scdn.co/image/60cfab40c6bb160a1906be45276829d430058005", 
            "width": 640
        }, 
        {
            "height": 320, 
            "url": "https://i.scdn.co/image/5ea794cf832550943d5f8122afcf5f23ee9d85b7", 
            "width": 320
        }, 
        {
            "height": 160, 
            "url": "https://i.scdn.co/image/8eaace74aaca82eaccde400bbcab2653b9cf86e1", 
            "width": 160
        }
        ], 
        "name": "Drake", 
        "popularity": 99, 
        "type": "artist", 
        "uri": "spotify:artist:3TVXtAsR1Inumwj472S9r4"
    }, 
    {
        "external_urls": {
        "spotify": "https://open.spotify.com/artist/3U0pUvFUMv6gJiTFnXiueY"
        }, 
        "followers": {
        "href": null, 
        "total": 205478
        }, 
        "genres": [
        "french hip hop", 
        "rap francais"
        ], 
        "href": "https://api.spotify.com/v1/artists/3U0pUvFUMv6gJiTFnXiueY", 
        "id": "3U0pUvFUMv6gJiTFnXiueY", 
        "images": [
        {
            "height": 640, 
            "url": "https://i.scdn.co/image/15022670ef354ad96c4fa9a85b725fe0692668ba", 
            "width": 640
        }, 
        {
            "height": 320, 
            "url": "https://i.scdn.co/image/1b6e31f0309c4b7bb8fef798bac4f40655dc4696", 
            "width": 320
        }, 
        {
            "height": 160, 
            "url": "https://i.scdn.co/image/f3d0c27f552d0fae387e8b320edb5135f56224a3", 
            "width": 160
        }
        ], 
        "name": "KIKESA", 
        "popularity": 61, 
        "type": "artist", 
        "uri": "spotify:artist:3U0pUvFUMv6gJiTFnXiueY"
    }, 
    {
        "external_urls": {
        "spotify": "https://open.spotify.com/artist/3YwqjMyrRfuixi2pbgTGCE"
        }, 
        "followers": {
        "href": null, 
        "total": 991507
        }, 
        "genres": [
        "francoton", 
        "french hip hop", 
        "pop urbaine", 
        "rap francais"
        ], 
        "href": "https://api.spotify.com/v1/artists/3YwqjMyrRfuixi2pbgTGCE", 
        "id": "3YwqjMyrRfuixi2pbgTGCE", 
        "images": [
        {
            "height": 640, 
            "url": "https://i.scdn.co/image/78a88718f1c2a683dc6103005686cab1c2309aa9", 
            "width": 640
        }, 
        {
            "height": 320, 
            "url": "https://i.scdn.co/image/625984d1d75042adc8bc67b37f928895a5632540", 
            "width": 320
        }, 
        {
            "height": 160, 
            "url": "https://i.scdn.co/image/767977b99cba50ac7be7c07dd112dcc8e96268c5", 
            "width": 160
        }
        ], 
        "name": "Heuss L'enfoir\u00e9", 
        "popularity": 74, 
        "type": "artist", 
        "uri": "spotify:artist:3YwqjMyrRfuixi2pbgTGCE"
    }, 
    {
        "external_urls": {
        "spotify": "https://open.spotify.com/artist/4FpJcNgOvIpSBeJgRg3OfN"
        }, 
        "followers": {
        "href": null, 
        "total": 1359762
        }, 
        "genres": [
        "francoton", 
        "french hip hop", 
        "new french touch", 
        "old school rap francais", 
        "rap conscient"
        ], 
        "href": "https://api.spotify.com/v1/artists/4FpJcNgOvIpSBeJgRg3OfN", 
        "id": "4FpJcNgOvIpSBeJgRg3OfN", 
        "images": [
        {
            "height": 640, 
            "url": "https://i.scdn.co/image/906920421eed095439a3f2a1482b21290f345170", 
            "width": 640
        }, 
        {
            "height": 320, 
            "url": "https://i.scdn.co/image/b0f9867b324cab94c3c7b4a5559c7ed9a6f7f835", 
            "width": 320
        }, 
        {
            "height": 160, 
            "url": "https://i.scdn.co/image/37a9ec370d7f96c99f7b306913f750aca530d233", 
            "width": 160
        }
        ], 
        "name": "Orelsan", 
        "popularity": 68, 
        "type": "artist", 
        "uri": "spotify:artist:4FpJcNgOvIpSBeJgRg3OfN"
    }, 
    {
        "external_urls": {
        "spotify": "https://open.spotify.com/artist/4LXBc13z5EWsc5N32bLxfH"
        }, 
        "followers": {
        "href": null, 
        "total": 1660347
        }, 
        "genres": [
        "french hip hop", 
        "pop urbaine", 
        "rap conscient"
        ], 
        "href": "https://api.spotify.com/v1/artists/4LXBc13z5EWsc5N32bLxfH", 
        "id": "4LXBc13z5EWsc5N32bLxfH", 
        "images": [
        {
            "height": 1000, 
            "url": "https://i.scdn.co/image/4b29b23a7dc7ac866210d93d4a5287c95941696c", 
            "width": 1000
        }, 
        {
            "height": 640, 
            "url": "https://i.scdn.co/image/993e6f5f13ed0cc9107f2c47ea56b525d0973020", 
            "width": 640
        }, 
        {
            "height": 200, 
            "url": "https://i.scdn.co/image/7ac27d4b06dfc3f5680ee2a64b8e99eee4ce7cdd", 
            "width": 200
        }, 
        {
            "height": 64, 
            "url": "https://i.scdn.co/image/a4d48b6d46ce532d0d26b58e1344ebfd02a1b4c8", 
            "width": 64
        }
        ], 
        "name": "Nekfeu", 
        "popularity": 78, 
        "type": "artist", 
        "uri": "spotify:artist:4LXBc13z5EWsc5N32bLxfH"
    }, 
    {
        "external_urls": {
        "spotify": "https://open.spotify.com/artist/4kAzmAcboZ0F6bCCb4jj8I"
        }, 
        "followers": {
        "href": null, 
        "total": 72914
        }, 
        "genres": [
        "french hip hop", 
        "rap calme"
        ], 
        "href": "https://api.spotify.com/v1/artists/4kAzmAcboZ0F6bCCb4jj8I", 
        "id": "4kAzmAcboZ0F6bCCb4jj8I", 
        "images": [
        {
            "height": 640, 
            "url": "https://i.scdn.co/image/41bff06b95921c415526962687718cb0c7b2faf0", 
            "width": 640
        }, 
        {
            "height": 320, 
            "url": "https://i.scdn.co/image/7dcd73ee94181650c2d3620aed3977aa59cb44a1", 
            "width": 320
        }, 
        {
            "height": 160, 
            "url": "https://i.scdn.co/image/f6a694521ef8e28cdcc81e0fbf4d2a170df588b8", 
            "width": 160
        }
        ], 
        "name": "Spider ZED", 
        "popularity": 54, 
        "type": "artist", 
        "uri": "spotify:artist:4kAzmAcboZ0F6bCCb4jj8I"
    }
    ], 
    "limit": 20, 
    "next": "https://api.spotify.com/v1/me/following?type=artist&after=4kAzmAcboZ0F6bCCb4jj8I&limit=20", 
    "total": 29
}
}